{
  "realm": "${env.KEYCLOAK_REALM}",
  "auth-server-url": "${env.AUTH_SERVER_URL}",
  "ssl-required": "none",
  "resource": "${env.KEYCLOAK_CLIENT_NAME}",
  "public-client": true,
  "enable-cors" : true,
  "cors-allowed-methods": "GET, POST, PUT, DELETE, OPTIONS",
  "cors-allowed-headers": "Origin, Accept, Prefer, X-Requested-With, Content-Type, Access-Control-Request-Method, Access-Control-Request-Headers, Authorization"
}